%YAML 1.1
%TAG !u! tag:unity3d.com,2011:
--- !u!114 &11400000
MonoBehaviour:
  m_ObjectHideFlags: 0
  m_CorrespondingSourceObject: {fileID: 0}
  m_PrefabInstance: {fileID: 0}
  m_PrefabAsset: {fileID: 0}
  m_GameObject: {fileID: 0}
  m_Enabled: 1
  m_EditorHideFlags: 0
  m_Script: {fileID: 11500000, guid: 70799eab99ea45ce80b56c5069fd88d0, type: 3}
  m_Name: SimpleEnemyConfig
  m_EditorClassIdentifier: 
  TakeDamageTag: Sword
  StartingHeatlh: 1
  RunSpeed: 2
  JumpHeight: 0
  WalkAcceleration: 50
  AirAcceleration: 0
  GroundDeceleration: 35
